[gd_scene load_steps=8 format=3 uid="uid://k0xj5gwte1m5"]

[ext_resource type="Texture2D" uid="uid://dhen0wflbijc8" path="res://models/earth-2048.jpg" id="1_rv0q3"]
[ext_resource type="Material" uid="uid://dhmfp8okytbuw" path="res://rocket/material.tres" id="2_bo43g"]

[sub_resource type="SphereMesh" id="SphereMesh_tipyo"]
radius = 6.371
height = 12.742

[sub_resource type="StandardMaterial3D" id="StandardMaterial3D_osalj"]
albedo_texture = ExtResource("1_rv0q3")

[sub_resource type="Environment" id="Environment_j0ojy"]
background_energy_multiplier = 0.0
ambient_light_energy = 0.0
ssr_enabled = true

[sub_resource type="CameraAttributesPractical" id="CameraAttributesPractical_1wrp2"]

[sub_resource type="CapsuleMesh" id="CapsuleMesh_jhxqo"]
radius = 0.25
height = 1.0

[node name="Node3D" type="Node3D"]

[node name="Earth" type="MeshInstance3D" parent="."]
mesh = SubResource("SphereMesh_tipyo")
surface_material_override/0 = SubResource("StandardMaterial3D_osalj")

[node name="WorldEnvironment" type="WorldEnvironment" parent="."]
environment = SubResource("Environment_j0ojy")
camera_attributes = SubResource("CameraAttributesPractical_1wrp2")

[node name="Sun" type="OmniLight3D" parent="."]
transform = Transform3D(1, 0, 0, 0, 1, 0, 0, 0, 1, -9.754, 0, 6.103)
light_energy = 1.485
light_size = 1.0
omni_range = 4096.0
omni_attenuation = 0.0947324

[node name="CameraFar" type="Camera3D" parent="."]
transform = Transform3D(0.889616, 0, -0.45671, 0, 1, 0, 0.45671, 0, 0.889616, -6.964, 0, 11.977)

[node name="Rocket" type="MeshInstance3D" parent="."]
transform = Transform3D(1, 0, 0, 0, 1, 0, 0, 0, 1, -5.03703, 0, 3.90766)
mesh = SubResource("CapsuleMesh_jhxqo")
surface_material_override/0 = ExtResource("2_bo43g")
