0,6.16031e+06,148927,0,-894.841,111.176,0,418.09
10,6.15399e+06,149651,0,-479.197,48.3863,0,418.09
20,6.14986e+06,150012,0,-366.128,26.4947,0,418.09
30,6.14645e+06,150213,0,-323.861,14.9435,0,418.09
40,6.14329e+06,150324,0,-311.575,7.89323,0,418.09
50,6.14019e+06,150379,0,-308.139,3.31677,0,418.09
60,6.13712e+06,150396,0,-306.093,-0.0700025,0,418.09
70,6.13406e+06,150384,0,-306.323,-2.33087,0,418.09
80,6.13099e+06,150355,0,-307.506,-3.6516,0,418.09
90,6.12791e+06,150315,0,-308.472,-4.37014,0,418.09
100,6.12483e+06,150269,0,-308.542,-4.81994,0,418.09
110,6.12174e+06,150219,0,-307.839,-5.31537,0,418.09
120,6.11867e+06,150162,0,-306.969,-5.88596,0,418.09
130,6.1156e+06,150100,0,-306.164,-6.53175,0,418.09
140,6.11254e+06,150032,0,-305.769,-7.14404,0,418.09
150,6.10948e+06,149958,0,-305.975,-7.66178,0,418.09
160,6.10642e+06,149881,0,-306.611,-8.00515,0,418.09
170,6.10335e+06,149801,0,-307.526,-8.10519,0,418.09
180,6.10027e+06,149721,0,-308.467,-7.99606,0,418.09
190,6.09718e+06,149643,0,-309.087,-7.72446,0,418.09
200,6.09409e+06,149567,0,-309.358,-7.36538,0,418.09
210,6.091e+06,149495,0,-309.228,-7.07418,0,418.09
220,6.08791e+06,149425,0,-308.791,-6.88269,0,418.09
230,6.08482e+06,149355,0,-308.347,-6.87548,0,418.09
240,6.08174e+06,149285,0,-307.964,-7.04144,0,418.09
250,6.07866e+06,149213,0,-307.865,-7.29771,0,418.09
260,6.07558e+06,149139,0,-308.068,-7.61609,0,418.09
270,6.0725e+06,149062,0,-308.461,-7.86147,0,418.09
280,6.06941e+06,148983,0,-309.005,-8.00521,0,418.09
290,6.06632e+06,148903,0,-309.463,-8.04783,0,418.09
300,6.06322e+06,148824,0,-309.76,-7.98948,0,418.09
310,6.06013e+06,148746,0,-309.894,-7.83028,0,418.09
320,6.05703e+06,148668,0,-309.911,-7.62627,0,418.09
330,6.05393e+06,148593,0,-309.849,-7.42496,0,418.09
340,6.05083e+06,148520,0,-309.708,-7.22633,0,418.09
350,6.04774e+06,148448,0,-309.533,-7.05282,0,418.09
360,6.04464e+06,148377,0,-309.428,-6.95596,0,418.09
370,6.04155e+06,148307,0,-309.397,-6.9378,0,418.09
380,6.03845e+06,148237,0,-309.44,-6.99173,0,418.09
390,6.03536e+06,148166,0,-309.546,-7.07706,0,418.09
400,6.03226e+06,148094,0,-309.715,-7.18683,0,418.09
410,6.02916e+06,148021,0,-309.945,-7.32105,0,418.09
420,6.02605e+06,147947,0,-310.238,-7.47972,0,418.09
430,6.02295e+06,147871,0,-310.585,-7.6587,0,418.09
440,6.01984e+06,147794,0,-310.927,-7.82283,0,418.09
450,6.01673e+06,147716,0,-311.249,-7.96411,0,418.09
460,6.01362e+06,147636,0,-311.551,-8.08252,0,418.09
470,6.0105e+06,147555,0,-311.833,-8.17807,0,418.09
480,6.00738e+06,147473,0,-312.092,-8.24992,0,418.09
490,6.00426e+06,147391,0,-312.297,-8.28765,0,418.09
500,6.00114e+06,147309,0,-312.437,-8.28816,0,418.09
510,5.99802e+06,147228,0,-312.512,-8.25145,0,418.09
520,5.99489e+06,147146,0,-312.523,-8.17752,0,418.09
530,5.99177e+06,147065,0,-312.47,-8.06758,0,418.09
540,5.98865e+06,146985,0,-312.393,-7.94535,0,418.09
550,5.98552e+06,146907,0,-312.305,-7.82003,0,418.09
560,5.9824e+06,146829,0,-312.206,-7.6916,0,418.09
570,5.97928e+06,146753,0,-312.097,-7.56007,0,418.09
580,5.97616e+06,146678,0,-311.978,-7.42605,0,418.09
590,5.97304e+06,146604,0,-311.895,-7.31143,0,418.09
600,5.96992e+06,146530,0,-311.871,-7.22717,0,418.09
610,5.9668e+06,146458,0,-311.906,-7.17328,0,418.09
620,5.96368e+06,146385,0,-311.999,-7.14974,0,418.09
630,5.96055e+06,146313,0,-312.15,-7.15651,0,418.09
640,5.95743e+06,146241,0,-312.349,-7.1878,0,418.09
650,5.95431e+06,146169,0,-312.588,-7.23985,0,418.09
660,5.95118e+06,146095,0,-312.867,-7.31266,0,418.09
670,5.94805e+06,146021,0,-313.185,-7.40623,0,418.09
680,5.94491e+06,145946,0,-313.544,-7.52053,0,418.09
690,5.94178e+06,145871,0,-313.9,-7.63742,0,418.09
700,5.93864e+06,145794,0,-314.218,-7.74133,0,418.09
710,5.93549e+06,145717,0,-314.498,-7.83225,0,418.09
720,5.93235e+06,145638,0,-314.739,-7.91019,0,418.09
730,5.9292e+06,145559,0,-314.942,-7.97514,0,418.09
740,5.92605e+06,145479,0,-315.113,-8.02805,0,418.09
750,5.9229e+06,145400,0,-315.257,-8.07002,0,418.09
760,5.91975e+06,145320,0,-315.376,-8.10104,0,418.09
770,5.9166e+06,145240,0,-315.468,-8.12112,0,418.09
780,5.91345e+06,145160,0,-315.535,-8.13026,0,418.09
790,5.9103e+06,145081,0,-315.576,-8.12845,0,418.09
800,5.90714e+06,145001,0,-315.591,-8.1157,0,418.09
810,5.90399e+06,144921,0,-315.58,-8.092,0,418.09
820,5.90084e+06,144842,0,-315.543,-8.05737,0,418.09
830,5.89768e+06,144762,0,-315.48,-8.01178,0,418.09
840,5.89453e+06,144682,0,-315.392,-7.95544,0,418.09
850,5.89138e+06,144603,0,-315.301,-7.89627,0,418.09
860,5.88822e+06,144524,0,-315.221,-7.83847,0,418.09
870,5.88507e+06,144446,0,-315.151,-7.78204,0,418.09
880,5.88192e+06,144368,0,-315.091,-7.72699,0,418.09
890,5.87877e+06,144291,0,-315.042,-7.67331,0,418.09
