{
    "uri": "earth-lopoly.gltf",
    "mimeType": "model/gltf+json",
    "validatorVersion": "2.0.0-dev.3.8",
    "issues": {
        "numErrors": 4,
        "numWarnings": 0,
        "numInfos": 1,
        "numHints": 0,
        "messages": [
            {
                "code": "IMAGE_NPOT_DIMENSIONS",
                "message": "Image has non-power-of-two dimensions: 5400x2700.",
                "severity": 2,
                "pointer": "/images/0"
            },
            {
                "code": "ACCESSOR_MIN_MISMATCH",
                "message": "Declared minimum value for this component (-1.0) does not match actual minimum (-0.7071067690849304).",
                "severity": 0,
                "pointer": "/accessors/0/min/0"
            },
            {
                "code": "ACCESSOR_MIN_MISMATCH",
                "message": "Declared minimum value for this component (-1.0) does not match actual minimum (-0.7071067690849304).",
                "severity": 0,
                "pointer": "/accessors/0/min/2"
            },
            {
                "code": "ACCESSOR_MAX_MISMATCH",
                "message": "Declared maximum value for this component (1.0) does not match actual maximum (0.7071067690849304).",
                "severity": 0,
                "pointer": "/accessors/0/max/0"
            },
            {
                "code": "ACCESSOR_MAX_MISMATCH",
                "message": "Declared maximum value for this component (1.0) does not match actual maximum (0.7071067690849304).",
                "severity": 0,
                "pointer": "/accessors/0/max/2"
            }
        ],
        "truncated": false
    },
    "info": {
        "version": "2.0",
        "resources": [
            {
                "pointer": "/buffers/0",
                "mimeType": "application/gltf-buffer",
                "storage": "external",
                "uri": "sphere3_1-position.bin",
                "byteLength": 144
            },
            {
                "pointer": "/buffers/1",
                "mimeType": "application/gltf-buffer",
                "storage": "external",
                "uri": "sphere3_1-normal.bin",
                "byteLength": 144
            },
            {
                "pointer": "/buffers/2",
                "mimeType": "application/gltf-buffer",
                "storage": "external",
                "uri": "sphere3_1-uv.bin",
                "byteLength": 96
            },
            {
                "pointer": "/buffers/3",
                "mimeType": "application/gltf-buffer",
                "storage": "external",
                "uri": "sphere3_1-id.bin",
                "byteLength": 384
            },
            {
                "pointer": "/images/0",
                "mimeType": "image/jpeg",
                "storage": "external",
                "uri": "earth-2048.jpg",
                "image": {
                    "width": 5400,
                    "height": 2700,
                    "format": "rgb",
                    "bits": 8
                }
            }
        ],
        "animationCount": 0,
        "materialCount": 1,
        "hasMorphTargets": false,
        "hasSkins": false,
        "hasTextures": true,
        "hasDefaultScene": true,
        "drawCallCount": 1,
        "totalVertexCount": 12,
        "totalTriangleCount": 16,
        "maxUVs": 1,
        "maxInfluences": 0,
        "maxAttributes": 3
    }
}